{
  "consumes": [
    "application/json"
  ],
  "produces": [
    "application/json"
  ],
  "schemes": [
    "http",
    "https"
  ],
  "swagger": "2.0",
  "info": {
    "description": "Description Zeniius backend server api .",
    "title": "Zeniius Backend API.",
    "contact": {
      "url": "https://rockship.co/"
    },
    "license": {
      "name": "localhost:3500"
    },
    "version": "0.1.0"
  },
  "host": "localhost:3500",
  "basePath": "/api/v1",
  "paths": {
    "/": {
      "get": {
        "description": "Ping check server running",
        "operationId": "Ping",
        "responses": {
          "200": {
            "$ref": "#/responses/PingResponse"
          }
        }
      }
    },
    "/business": {
      "get": {
        "security": [
          {
            "api_key": []
          }
        ],
        "description": "Get all business area",
        "tags": [
          "business"
        ],
        "operationId": "getBusiness",
        "responses": {
          "200": {
            "$ref": "#/responses/Business"
          }
        }
      }
    },
    "/comment/file/url": {
      "post": {
        "security": [
          {
            "api_key": []
          }
        ],
        "description": "Get upload url for comment file",
        "tags": [
          "comment"
        ],
        "summary": "Get signed url for comment",
        "operationId": "uploadLink",
        "parameters": [
          {
            "name": "Body",
            "in": "body",
            "schema": {
              "$ref": "#/definitions/UploadFile"
            }
          }
        ],
        "responses": {
          "200": {
            "$ref": "#/responses/SignedUrl"
          }
        }
      }
    },
    "/comment/{id}": {
      "put": {
        "security": [
          {
            "api_key": []
          }
        ],
        "description": "Update comment",
        "tags": [
          "comment"
        ],
        "operationId": "updateComment",
        "parameters": [
          {
            "type": "integer",
            "format": "int64",
            "x-go-name": "ID",
            "description": "Comment ID",
            "name": "id",
            "in": "path",
            "required": true
          },
          {
            "description": "Update comment payload",
            "name": "Body",
            "in": "body",
            "schema": {
              "$ref": "#/definitions/UpdateCommentPayload"
            }
          }
        ],
        "responses": {
          "200": {
            "$ref": "#/responses/DefaultResponse"
          }
        }
      },
      "delete": {
        "security": [
          {
            "api_key": []
          }
        ],
        "description": "Delete comment",
        "tags": [
          "comment"
        ],
        "operationId": "deleteComment",
        "parameters": [
          {
            "type": "integer",
            "format": "int64",
            "x-go-name": "ID",
            "description": "Comment ID",
            "name": "id",
            "in": "path",
            "required": true
          }
        ],
        "responses": {
          "200": {
            "$ref": "#/responses/DefaultResponse"
          }
        }
      }
    },
    "/comment/{id}/children": {
      "get": {
        "security": [
          {
            "api_key": []
          }
        ],
        "description": "Get children comment of a comment",
        "tags": [
          "comment"
        ],
        "operationId": "listChildrenComments",
        "parameters": [
          {
            "type": "integer",
            "format": "int64",
            "x-go-name": "Page",
            "description": "Page number",
            "name": "page",
            "in": "query"
          },
          {
            "type": "integer",
            "format": "int64",
            "x-go-name": "ID",
            "description": "Comment ID",
            "name": "id",
            "in": "path",
            "required": true
          }
        ],
        "responses": {
          "200": {
            "$ref": "#/responses/Comment"
          }
        }
      }
    },
    "/comment/{id}/like": {
      "post": {
        "security": [
          {
            "api_key": []
          }
        ],
        "description": "Like Comment",
        "tags": [
          "comment"
        ],
        "operationId": "likeComment",
        "parameters": [
          {
            "type": "integer",
            "format": "int64",
            "x-go-name": "CommentID",
            "description": "Comment ID",
            "name": "id",
            "in": "path",
            "required": true
          }
        ],
        "responses": {
          "200": {
            "$ref": "#/responses/Default"
          }
        }
      },
      "delete": {
        "security": [
          {
            "api_key": []
          }
        ],
        "description": "Unlike Comment",
        "tags": [
          "comment"
        ],
        "operationId": "unlikeComment",
        "parameters": [
          {
            "type": "integer",
            "format": "int64",
            "x-go-name": "CommentID",
            "description": "Comment ID",
            "name": "id",
            "in": "path",
            "required": true
          }
        ],
        "responses": {
          "200": {
            "$ref": "#/responses/Default"
          }
        }
      }
    },
    "/company": {
      "get": {
        "security": [
          {
            "api_key": []
          }
        ],
        "description": "Get list company",
        "tags": [
          "company"
        ],
        "operationId": "getAllCompany",
        "responses": {
          "200": {
            "$ref": "#/responses/CompanyStub"
          }
        }
      }
    },
    "/feed": {
      "get": {
        "security": [
          {
            "api_key": []
          }
        ],
        "description": "Get user list of post from other people",
        "tags": [
          "feed"
        ],
        "summary": "Get newfeeds",
        "operationId": "listPosts",
        "parameters": [
          {
            "type": "integer",
            "format": "int64",
            "x-go-name": "Page",
            "description": "Page number",
            "name": "page",
            "in": "query"
          },
          {
            "type": "array",
            "items": {
              "type": "integer",
              "format": "int64"
            },
            "x-go-name": "Business",
            "description": "Business IDs",
            "name": "business",
            "in": "query"
          },
          {
            "type": "array",
            "items": {
              "type": "string"
            },
            "x-go-name": "Group",
            "description": "Group IDs",
            "name": "group",
            "in": "query"
          },
          {
            "enum": [
              "demands",
              "ability",
              "none"
            ],
            "type": "string",
            "x-go-name": "Demand",
            "description": "Demand filter",
            "name": "demand",
            "in": "query"
          },
          {
            "enum": [
              "public",
              "related",
              "following"
            ],
            "type": "string",
            "x-go-name": "Filter",
            "description": "Filter",
            "name": "filter",
            "in": "query"
          }
        ],
        "responses": {
          "200": {
            "$ref": "#/responses/Post"
          }
        }
      }
    },
    "/feed/{id}/comment": {
      "get": {
        "security": [
          {
            "api_key": []
          }
        ],
        "description": "Get all parent comments of post with its latest child comment",
        "tags": [
          "feed"
        ],
        "operationId": "listComments",
        "parameters": [
          {
            "type": "integer",
            "format": "int64",
            "x-go-name": "Page",
            "description": "Page number",
            "name": "page",
            "in": "query"
          },
          {
            "type": "integer",
            "format": "int64",
            "x-go-name": "ID",
            "description": "Post ID",
            "name": "id",
            "in": "path",
            "required": true
          }
        ],
        "responses": {
          "200": {
            "$ref": "#/responses/Comment"
          }
        }
      },
      "post": {
        "security": [
          {
            "api_key": []
          }
        ],
        "description": "Create a comment on a post ID",
        "tags": [
          "comment"
        ],
        "summary": "Create comment on post",
        "operationId": "createComment",
        "parameters": [
          {
            "name": "Body",
            "in": "body",
            "schema": {
              "$ref": "#/definitions/CommentPayload"
            }
          },
          {
            "type": "integer",
            "format": "int64",
            "x-go-name": "ID",
            "description": "Post ID",
            "name": "id",
            "in": "path",
            "required": true
          }
        ],
        "responses": {
          "200": {
            "$ref": "#/responses/Comment"
          }
        }
      }
    },
    "/file/upload-url": {
      "post": {
        "security": [
          {
            "api_key": []
          }
        ],
        "description": "Get upload url for file",
        "tags": [
          "file"
        ],
        "summary": "Get signed url for file",
        "operationId": "uploadFile",
        "parameters": [
          {
            "name": "Body",
            "in": "body",
            "schema": {
              "$ref": "#/definitions/UploadFile"
            }
          }
        ],
        "responses": {
          "200": {
            "$ref": "#/responses/SignedUrl"
          }
        }
      }
    },
    "/files/{fid}": {
      "get": {
        "security": [
          {
            "api_key": []
          }
        ],
        "description": "Get full download file path",
        "tags": [
          "file"
        ],
        "summary": "Get full download file path",
        "operationId": "getFile",
        "responses": {
          "301": {
            "$ref": "#/responses/string"
          }
        }
      }
    },
    "/followers": {
      "get": {
        "security": [
          {
            "api_key": []
          }
        ],
        "description": "Get all user following me",
        "tags": [
          "relationship_follow"
        ],
        "summary": "Get all user following me",
        "operationId": "GetAllFollower",
        "responses": {
          "200": {
            "$ref": "#/responses/UserList"
          }
        }
      }
    },
    "/following": {
      "get": {
        "security": [
          {
            "api_key": []
          }
        ],
        "description": "Get all user i am following to",
        "tags": [
          "relationship_follow"
        ],
        "summary": "Get all user i am following to",
        "operationId": "GetAllFollowering",
        "responses": {
          "200": {
            "$ref": "#/responses/UserList"
          }
        }
      },
      "post": {
        "security": [
          {
            "api_key": []
          }
        ],
        "description": "Follow a user",
        "tags": [
          "relationship_follow"
        ],
        "summary": "Follow a user",
        "operationId": "AddNewFollower",
        "parameters": [
          {
            "x-go-name": "FollowerID",
            "description": "ID of Follower",
            "name": "follower_id",
            "in": "body",
            "required": true,
            "schema": {
              "type": "integer",
              "format": "int64"
            }
          }
        ],
        "responses": {
          "200": {
            "$ref": "#/responses/SimpleResponse"
          }
        }
      }
    },
    "/following/{follower_id}": {
      "delete": {
        "security": [
          {
            "api_key": []
          }
        ],
        "description": "Remove a follower (unfollow) a user",
        "tags": [
          "relationship_follow"
        ],
        "summary": "Unfollow a user",
        "operationId": "RemoveFollowerParam",
        "parameters": [
          {
            "type": "integer",
            "format": "int64",
            "x-go-name": "FollowerID",
            "description": "ID of Follower",
            "name": "follower_id",
            "in": "path",
            "required": true
          }
        ],
        "responses": {
          "200": {
            "$ref": "#/responses/SimpleResponse"
          }
        }
      }
    },
    "/friends": {
      "get": {
        "security": [
          {
            "api_key": []
          }
        ],
        "description": "Get all friend of this user",
        "tags": [
          "relationship_friend"
        ],
        "summary": "Get all friend",
        "operationId": "GetAllFriend",
        "responses": {
          "200": {
            "$ref": "#/responses/UserList"
          }
        }
      }
    },
    "/friends/request": {
      "get": {
        "security": [
          {
            "api_key": []
          }
        ],
        "description": "Get all friend requestof this user",
        "tags": [
          "relationship_friend"
        ],
        "summary": "Get all friend request",
        "operationId": "GetAllFriendRequest",
        "responses": {
          "200": {
            "$ref": "#/responses/UserList"
          }
        }
      },
      "put": {
        "security": [
          {
            "api_key": []
          }
        ],
        "description": "Accept a friend request",
        "tags": [
          "relationship_friend"
        ],
        "summary": "Accept a friend request",
        "operationId": "AcceptFriendRequest",
        "parameters": [
          {
            "x-go-name": "FriendID",
            "description": "ID of the request",
            "name": "friend_id",
            "in": "body",
            "required": true,
            "schema": {
              "type": "integer",
              "format": "int64"
            }
          }
        ],
        "responses": {
          "200": {
            "$ref": "#/responses/SimpleResponse"
          }
        }
      },
      "post": {
        "security": [
          {
            "api_key": []
          }
        ],
        "description": "Add new friend request",
        "tags": [
          "relationship_friend"
        ],
        "summary": "Add new friend request",
        "operationId": "AddNewFriendRequest",
        "parameters": [
          {
            "x-go-name": "FriendID",
            "description": "ID of Friend",
            "name": "friend_id",
            "in": "body",
            "required": true,
            "schema": {
              "type": "integer",
              "format": "int64"
            }
          }
        ],
        "responses": {
          "200": {
            "$ref": "#/responses/SimpleResponse"
          }
        }
      }
    },
    "/friends/request/{friendID}": {
      "delete": {
        "security": [
          {
            "api_key": []
          }
        ],
        "description": "Decline a friend request",
        "tags": [
          "relationship_friend"
        ],
        "summary": "Decline a friend request",
        "operationId": "RemoveFriendRequest",
        "parameters": [
          {
            "type": "integer",
            "format": "int64",
            "x-go-name": "FriendID",
            "description": "ID of the request",
            "name": "friend_id",
            "in": "path",
            "required": true
          }
        ],
        "responses": {
          "200": {
            "$ref": "#/responses/SimpleResponse"
          }
        }
      }
    },
    "/friends/{friendID}": {
      "delete": {
        "security": [
          {
            "api_key": []
          }
        ],
        "description": "Unfriend",
        "tags": [
          "relationship_friend"
        ],
        "summary": "Unfriend",
        "operationId": "RemoveFriend",
        "parameters": [
          {
            "type": "integer",
            "format": "int64",
            "x-go-name": "RequestsID",
            "description": "ID of Follower",
            "name": "request_id",
            "in": "path",
            "required": true
          }
        ],
        "responses": {
          "200": {
            "$ref": "#/responses/SimpleResponse"
          }
        }
      }
    },
    "/login": {
      "post": {
        "description": "Sending firebase jwt token after authenticate with firebase to receive access token",
        "tags": [
          "authentication"
        ],
        "summary": "Login with firebase",
        "operationId": "FirebaseToken",
        "parameters": [
          {
            "name": "Body",
            "in": "body",
            "schema": {
              "$ref": "#/definitions/LoginFirebase"
            }
          }
        ],
        "responses": {
          "200": {
            "$ref": "#/responses/AccessToken"
          },
          "403": {
            "$ref": "#/responses/GenericError"
          }
        }
      }
    },
    "/post": {
      "post": {
        "security": [
          {
            "api_key": []
          }
        ],
        "description": "Create Post",
        "tags": [
          "post"
        ],
        "operationId": "createPost",
        "parameters": [
          {
            "description": "Create post payload",
            "name": "Body",
            "in": "body",
            "schema": {
              "$ref": "#/definitions/PostPayload"
            }
          }
        ],
        "responses": {
          "200": {
            "$ref": "#/responses/Default"
          }
        }
      }
    },
    "/post/{id}": {
      "get": {
        "security": [
          {
            "api_key": []
          }
        ],
        "description": "Get Post Detail",
        "tags": [
          "post"
        ],
        "operationId": "getPostDetail",
        "parameters": [
          {
            "type": "integer",
            "format": "int64",
            "x-go-name": "PostID",
            "description": "Post ID",
            "name": "id",
            "in": "path",
            "required": true
          }
        ],
        "responses": {
          "200": {
            "$ref": "#/responses/Default"
          }
        }
      },
      "put": {
        "security": [
          {
            "api_key": []
          }
        ],
        "description": "Update Post",
        "tags": [
          "post"
        ],
        "operationId": "updatePost",
        "parameters": [
          {
            "type": "integer",
            "format": "int64",
            "x-go-name": "PostID",
            "description": "Post ID",
            "name": "id",
            "in": "path",
            "required": true
          },
          {
            "description": "Update post payload",
            "name": "Body",
            "in": "body",
            "schema": {
              "$ref": "#/definitions/PostUpdatePayload"
            }
          }
        ],
        "responses": {
          "200": {
            "$ref": "#/responses/Default"
          }
        }
      },
      "delete": {
        "security": [
          {
            "api_key": []
          }
        ],
        "description": "Delete Post",
        "tags": [
          "post"
        ],
        "operationId": "deletePost",
        "parameters": [
          {
            "type": "integer",
            "format": "int64",
            "x-go-name": "PostID",
            "description": "Post ID",
            "name": "id",
            "in": "path",
            "required": true
          }
        ],
        "responses": {
          "200": {
            "$ref": "#/responses/Default"
          }
        }
      }
    },
    "/post/{id}/like": {
      "get": {
        "security": [
          {
            "api_key": []
          }
        ],
        "description": "Unlike Post",
        "tags": [
          "post"
        ],
        "operationId": "getLikePostUser",
        "parameters": [
          {
            "type": "integer",
            "format": "int64",
            "x-go-name": "PostID",
            "description": "Post ID",
            "name": "id",
            "in": "path",
            "required": true
          }
        ],
        "responses": {
          "200": {
            "$ref": "#/responses/Default"
          }
        }
      },
      "post": {
        "security": [
          {
            "api_key": []
          }
        ],
        "description": "Like Post",
        "tags": [
          "post"
        ],
        "operationId": "likePost",
        "parameters": [
          {
            "type": "integer",
            "format": "int64",
            "x-go-name": "PostID",
            "description": "Post ID",
            "name": "id",
            "in": "path",
            "required": true
          }
        ],
        "responses": {
          "200": {
            "$ref": "#/responses/Default"
          }
        }
      },
      "delete": {
        "security": [
          {
            "api_key": []
          }
        ],
        "description": "Unlike Post",
        "tags": [
          "post"
        ],
        "operationId": "unlikePost",
        "parameters": [
          {
            "type": "integer",
            "format": "int64",
            "x-go-name": "PostID",
            "description": "Post ID",
            "name": "id",
            "in": "path",
            "required": true
          }
        ],
        "responses": {
          "200": {
            "$ref": "#/responses/Default"
          }
        }
      }
    },
    "/post/{id}/register": {
      "get": {
        "security": [
          {
            "api_key": []
          }
        ],
        "description": "Unlike Post",
        "tags": [
          "post"
        ],
        "operationId": "getRegisterPostUser",
        "parameters": [
          {
            "type": "integer",
            "format": "int64",
            "x-go-name": "PostID",
            "description": "Post ID",
            "name": "id",
            "in": "path",
            "required": true
          }
        ],
        "responses": {
          "200": {
            "$ref": "#/responses/Default"
          }
        }
      },
      "post": {
        "security": [
          {
            "api_key": []
          }
        ],
        "description": "Register Post",
        "tags": [
          "post"
        ],
        "operationId": "registerPost",
        "parameters": [
          {
            "type": "integer",
            "format": "int64",
            "x-go-name": "PostID",
            "description": "Post ID",
            "name": "id",
            "in": "path",
            "required": true
          }
        ],
        "responses": {
          "200": {
            "$ref": "#/responses/Default"
          }
        }
      },
      "delete": {
        "security": [
          {
            "api_key": []
          }
        ],
        "description": "Unregister Post",
        "tags": [
          "post"
        ],
        "operationId": "unregisterPost",
        "parameters": [
          {
            "type": "integer",
            "format": "int64",
            "x-go-name": "PostID",
            "description": "Post ID",
            "name": "id",
            "in": "path",
            "required": true
          }
        ],
        "responses": {
          "200": {
            "$ref": "#/responses/Default"
          }
        }
      }
    },
    "/post/{id}/report": {
      "post": {
        "security": [
          {
            "api_key": []
          }
        ],
        "description": "Report Post",
        "tags": [
          "post"
        ],
        "operationId": "reportPost",
        "parameters": [
          {
            "type": "integer",
            "format": "int64",
            "x-go-name": "PostID",
            "description": "Post ID",
            "name": "id",
            "in": "path",
            "required": true
          },
          {
            "description": "Report payload",
            "name": "Body",
            "in": "body",
            "required": true,
            "schema": {
              "$ref": "#/definitions/ReportPostPayload"
            }
          }
        ],
        "responses": {
          "200": {
            "$ref": "#/responses/Default"
          }
        }
      }
    },
    "/post/{id}/share": {
      "post": {
        "security": [
          {
            "api_key": []
          }
        ],
        "description": "Share Post",
        "tags": [
          "post"
        ],
        "operationId": "sharePost",
        "parameters": [
          {
            "type": "integer",
            "format": "int64",
            "x-go-name": "PostID",
            "description": "Post ID",
            "name": "id",
            "in": "path",
            "required": true
          },
          {
            "description": "Share post body",
            "name": "Body",
            "in": "body",
            "schema": {
              "$ref": "#/definitions/PostShare"
            }
          }
        ],
        "responses": {
          "200": {
            "$ref": "#/responses/SharePost"
          }
        }
      }
    },
    "/post/{post_id}/file/{file_id}": {
      "post": {
        "security": [
          {
            "api_key": []
          }
        ],
        "description": "Add post file",
        "tags": [
          "post"
        ],
        "operationId": "addPostFile",
        "parameters": [
          {
            "type": "integer",
            "format": "int64",
            "x-go-name": "PostID",
            "description": "Post ID",
            "name": "post_id",
            "in": "path",
            "required": true
          },
          {
            "type": "integer",
            "format": "int64",
            "x-go-name": "FileID",
            "description": "File ID",
            "name": "file_id",
            "in": "path",
            "required": true
          }
        ],
        "responses": {
          "200": {
            "$ref": "#/responses/Default"
          }
        }
      },
      "delete": {
        "security": [
          {
            "api_key": []
          }
        ],
        "description": "Delete post file",
        "tags": [
          "post"
        ],
        "operationId": "deletePostFile",
        "parameters": [
          {
            "type": "integer",
            "format": "int64",
            "x-go-name": "PostID",
            "description": "Post ID",
            "name": "post_id",
            "in": "path",
            "required": true
          },
          {
            "type": "integer",
            "format": "int64",
            "x-go-name": "FileID",
            "description": "File ID",
            "name": "file_id",
            "in": "path",
            "required": true
          }
        ],
        "responses": {
          "200": {
            "$ref": "#/responses/Default"
          }
        }
      }
    },
    "/translate": {
      "post": {
        "security": [
          {
            "api_key": []
          }
        ],
        "description": "Translate text",
        "tags": [
          "translate"
        ],
        "operationId": "translateText",
        "parameters": [
          {
            "description": "Translate payload",
            "name": "Body",
            "in": "body",
            "schema": {
              "$ref": "#/definitions/TranslateParam"
            }
          }
        ],
        "responses": {
          "200": {
            "$ref": "#/responses/Business"
          }
        }
      }
    },
    "/user": {
      "get": {
        "security": [
          {
            "api_key": []
          }
        ],
        "description": "Get list of all user in  app",
        "tags": [
          "user"
        ],
        "summary": "Get all user",
        "operationId": "listUser",
        "responses": {
          "200": {
            "$ref": "#/responses/User"
          }
        }
      }
    },
    "/user/me": {
      "get": {
        "security": [
          {
            "api_key": []
          }
        ],
        "description": "Get current user log in profile",
        "tags": [
          "user"
        ],
        "summary": "Get current user profile",
        "operationId": "currentUser",
        "responses": {
          "200": {
            "$ref": "#/responses/User"
          }
        }
      }
    },
    "/user/me/avatar": {
      "put": {
        "security": [
          {
            "api_key": []
          }
        ],
        "description": "Update User avatar",
        "tags": [
          "user"
        ],
        "summary": "Update User avatar",
        "operationId": "updateUserAvatar",
        "parameters": [
          {
            "name": "Body",
            "in": "body",
            "schema": {
              "$ref": "#/definitions/UpdateUserImage"
            }
          }
        ],
        "responses": {
          "200": {
            "$ref": "#/responses/string"
          }
        }
      }
    },
    "/user/me/business": {
      "post": {
        "security": [
          {
            "api_key": []
          }
        ],
        "description": "Add business to user profile",
        "tags": [
          "business"
        ],
        "operationId": "addUserBusiness",
        "parameters": [
          {
            "description": "User Business",
            "name": "Body",
            "in": "body",
            "schema": {
              "$ref": "#/definitions/UserBusinessPayload"
            }
          }
        ],
        "responses": {
          "200": {
            "$ref": "#/responses/Default"
          }
        }
      }
    },
    "/user/me/company": {
      "get": {
        "security": [
          {
            "api_key": []
          }
        ],
        "description": "Get list user company",
        "tags": [
          "company"
        ],
        "operationId": "getListUserCompany",
        "responses": {
          "200": {
            "$ref": "#/responses/Company"
          }
        }
      },
      "post": {
        "security": [
          {
            "api_key": []
          }
        ],
        "description": "Create user company",
        "tags": [
          "company"
        ],
        "operationId": "createCompany",
        "parameters": [
          {
            "description": "Company payload",
            "name": "Body",
            "in": "body",
            "schema": {
              "$ref": "#/definitions/CompanyPayload"
            }
          }
        ],
        "responses": {
          "200": {
            "$ref": "#/responses/Company"
          }
        }
      }
    },
    "/user/me/company/{company_id}/certificate/{file_id}": {
      "delete": {
        "security": [
          {
            "api_key": []
          }
        ],
        "description": "Delete company certificate",
        "tags": [
          "company"
        ],
        "operationId": "deleteCompanyCertificate",
        "parameters": [
          {
            "type": "integer",
            "format": "int64",
            "x-go-name": "CompanyID",
            "description": "Company ID",
            "name": "company_id",
            "in": "path",
            "required": true
          },
          {
            "type": "integer",
            "format": "int64",
            "x-go-name": "FileID",
            "description": "File ID",
            "name": "file_id",
            "in": "path",
            "required": true
          }
        ],
        "responses": {
          "200": {
            "$ref": "#/responses/Default"
          }
        }
      }
    },
    "/user/me/company/{id}": {
      "put": {
        "security": [
          {
            "api_key": []
          }
        ],
        "description": "Update user company",
        "tags": [
          "company"
        ],
        "operationId": "updateCompany",
        "parameters": [
          {
            "type": "integer",
            "format": "int64",
            "x-go-name": "ID",
            "description": "Company id",
            "name": "id",
            "in": "path",
            "required": true
          },
          {
            "description": "Company payload",
            "name": "Body",
            "in": "body",
            "schema": {
              "$ref": "#/definitions/UpdateCompanyPayload"
            }
          }
        ],
        "responses": {
          "200": {
            "$ref": "#/responses/Company"
          }
        }
      }
    },
    "/user/me/company/{id}/album": {
      "put": {
        "security": [
          {
            "api_key": []
          }
        ],
        "description": "Update company album",
        "tags": [
          "company"
        ],
        "operationId": "updateCompanyAlbum",
        "parameters": [
          {
            "type": "integer",
            "format": "int64",
            "x-go-name": "ID",
            "description": "Company id",
            "name": "id",
            "in": "path",
            "required": true
          },
          {
            "description": "Company payload",
            "name": "Body",
            "in": "body",
            "schema": {
              "$ref": "#/definitions/CompanyAlbumPayload"
            }
          }
        ],
        "responses": {
          "200": {
            "$ref": "#/responses/Company"
          }
        }
      }
    },
    "/user/me/company/{id}/business": {
      "post": {
        "security": [
          {
            "api_key": []
          }
        ],
        "description": "Add business to company profile",
        "tags": [
          "business"
        ],
        "operationId": "addCompanyBusiness",
        "parameters": [
          {
            "type": "integer",
            "format": "int64",
            "x-go-name": "ID",
            "description": "Company ID",
            "name": "id",
            "in": "path",
            "required": true
          },
          {
            "description": "Company business payload",
            "name": "Body",
            "in": "body",
            "schema": {
              "type": "array",
              "items": {
                "$ref": "#/definitions/CompanyBusinessPayload"
              }
            }
          }
        ],
        "responses": {
          "200": {
            "$ref": "#/responses/CompanyBusiness"
          }
        }
      }
    },
    "/user/me/company/{id}/certificate": {
      "post": {
        "security": [
          {
            "api_key": []
          }
        ],
        "description": "Add company certificate",
        "tags": [
          "company"
        ],
        "operationId": "addCompanyCertificate",
        "parameters": [
          {
            "type": "integer",
            "format": "int64",
            "x-go-name": "ID",
            "description": "Company ID",
            "name": "id",
            "in": "path",
            "required": true
          },
          {
            "description": "add company certificate",
            "name": "Body",
            "in": "body",
            "schema": {
              "$ref": "#/definitions/CompanyCertificatePayload"
            }
          }
        ],
        "responses": {
          "200": {
            "$ref": "#/responses/Default"
          }
        }
      }
    },
    "/user/me/contact": {
      "put": {
        "security": [
          {
            "api_key": []
          }
        ],
        "description": "Update User contact : phone, email, facebook link",
        "tags": [
          "user"
        ],
        "summary": "Update User contact",
        "operationId": "updateUserContact",
        "parameters": [
          {
            "description": "User contact",
            "name": "Body",
            "in": "body",
            "schema": {
              "$ref": "#/definitions/UpdateUserContactPayload"
            }
          }
        ],
        "responses": {
          "200": {
            "$ref": "#/responses/User"
          }
        }
      }
    },
    "/user/me/cover": {
      "put": {
        "security": [
          {
            "api_key": []
          }
        ],
        "description": "Update User cover",
        "tags": [
          "user"
        ],
        "summary": "Update User cover",
        "operationId": "updateUserCover",
        "parameters": [
          {
            "name": "Body",
            "in": "body",
            "schema": {
              "$ref": "#/definitions/UpdateUserImage"
            }
          }
        ],
        "responses": {
          "200": {
            "$ref": "#/responses/string"
          }
        }
      }
    },
    "/user/me/follower": {
      "get": {
        "security": [
          {
            "api_key": []
          }
        ],
        "description": "Get list of all user in  app",
        "tags": [
          "user"
        ],
        "summary": "Get all user",
        "operationId": "listUserFollower",
        "responses": {
          "200": {
            "$ref": "#/responses/User"
          }
        }
      }
    },
    "/user/me/personal": {
      "put": {
        "security": [
          {
            "api_key": []
          }
        ],
        "description": "Update User personal information : fullname, description , birthday",
        "tags": [
          "user"
        ],
        "summary": "Update User personal information",
        "operationId": "updateUserPersonal",
        "parameters": [
          {
            "description": "User personal information",
            "name": "Body",
            "in": "body",
            "schema": {
              "$ref": "#/definitions/UpdateUserPersonalPayload"
            }
          }
        ],
        "responses": {
          "200": {
            "$ref": "#/responses/User"
          }
        }
      }
    },
    "/user/search": {
      "get": {
        "security": [
          {
            "api_key": []
          }
        ],
        "description": "Search all CEO by name, email, company info , ability , post ...",
        "tags": [
          "user"
        ],
        "summary": "Search user",
        "operationId": "searchUser",
        "parameters": [
          {
            "type": "integer",
            "format": "int64",
            "x-go-name": "Page",
            "description": "Page number",
            "name": "page",
            "in": "query"
          },
          {
            "type": "string",
            "x-go-name": "Query",
            "description": "Query",
            "name": "q",
            "in": "query"
          }
        ],
        "responses": {
          "200": {
            "$ref": "#/responses/User"
          }
        }
      }
    },
    "/user/{id}": {
      "get": {
        "security": [
          {
            "api_key": []
          }
        ],
        "description": "Get user profile of CEO\nGet CEO profile",
        "tags": [
          "user"
        ],
        "operationId": "getUser",
        "parameters": [
          {
            "type": "integer",
            "format": "int64",
            "x-go-name": "ID",
            "description": "User ID",
            "name": "id",
            "in": "path",
            "required": true
          }
        ],
        "responses": {
          "200": {
            "$ref": "#/responses/UserExtend"
          }
        }
      }
    },
    "/user/{id}/company": {
      "get": {
        "security": [
          {
            "api_key": []
          }
        ],
        "description": "Get list company of a user",
        "tags": [
          "company"
        ],
        "operationId": "getCompanyOfUser",
        "parameters": [
          {
            "type": "integer",
            "format": "int64",
            "x-go-name": "ID",
            "description": "User ID",
            "name": "id",
            "in": "path",
            "required": true
          }
        ],
        "responses": {
          "200": {
            "$ref": "#/responses/Company"
          }
        }
      }
    },
    "/user/{id}/verification": {
      "put": {
        "security": [
          {
            "api_key": []
          }
        ],
        "description": "Update user verification",
        "tags": [
          "user"
        ],
        "summary": "Update user verification",
        "operationId": "updateUserVerification",
        "parameters": [
          {
            "type": "integer",
            "format": "int64",
            "x-go-name": "ID",
            "description": "User ID",
            "name": "id",
            "in": "path",
            "required": true
          },
          {
            "description": "Verification payload",
            "name": "Body",
            "in": "body",
            "schema": {
              "$ref": "#/definitions/UserVerifyPayload"
            }
          }
        ],
        "responses": {
          "200": {
            "$ref": "#/responses/string"
          }
        }
      }
    },
    "/users/{id}/following": {
      "get": {
        "security": [
          {
            "api_key": []
          }
        ],
        "description": "get all following user of a specific UserID",
        "tags": [
          "relationship_follow",
          "user"
        ],
        "summary": "get all following user of a specific UserID",
        "operationId": "GetUserFollowering",
        "parameters": [
          {
            "type": "integer",
            "format": "int64",
            "x-go-name": "ID",
            "description": "User ID",
            "name": "id",
            "in": "path",
            "required": true
          }
        ],
        "responses": {
          "200": {
            "$ref": "#/responses/UserList"
          }
        }
      }
    },
    "/users/{id}/friends": {
      "get": {
        "security": [
          {
            "api_key": []
          }
        ],
        "description": "Get all friend of a defined user",
        "tags": [
          "relationship_friend"
        ],
        "summary": "Get all friend of a defined user",
        "operationId": "GetUserFriend",
        "parameters": [
          {
            "type": "integer",
            "format": "int64",
            "x-go-name": "ID",
            "description": "User ID",
            "name": "id",
            "in": "path",
            "required": true
          }
        ],
        "responses": {
          "200": {
            "$ref": "#/responses/UserList"
          }
        }
      }
    }
  },
  "definitions": {
    "BusinessResponse": {
      "description": "Business",
      "type": "object",
      "properties": {
        "created_at": {
          "type": "string",
          "format": "date-time",
          "x-go-name": "CreatedAt"
        },
        "description": {
          "type": "string",
          "x-go-name": "Description"
        },
        "id": {
          "type": "integer",
          "format": "int64",
          "x-go-name": "ID"
        },
        "title": {
          "type": "string",
          "x-go-name": "Title"
        }
      },
      "x-go-package": "gitlab.com/rockship/backend/zeniius-backend/api"
    },
    "CommentPayload": {
      "type": "object",
      "required": [
        "content"
      ],
      "properties": {
        "content": {
          "description": "Comment content",
          "type": "string",
          "x-go-name": "Content"
        },
        "file_id": {
          "description": "Attachment id",
          "type": "integer",
          "format": "int64",
          "x-go-name": "File"
        },
        "parent_id": {
          "description": "Comment parent id",
          "type": "integer",
          "format": "int64",
          "x-go-name": "ParentID"
        }
      },
      "x-go-package": "gitlab.com/rockship/backend/zeniius-backend/api"
    },
    "CommentResponse": {
      "description": "Comment",
      "type": "object",
      "properties": {
        "Body": {
          "description": "in: body",
          "type": "object",
          "properties": {
            "attachment": {
              "type": "array",
              "items": {
                "type": "string"
              },
              "x-go-name": "Attachment"
            },
            "children_comment": {
              "type": "array",
              "items": {
                "type": "string"
              },
              "x-go-name": "ChildrenComments"
            },
            "children_comment_count": {
              "type": "integer",
              "format": "int64",
              "x-go-name": "ChildrenCommentsCount"
            },
            "content": {
              "type": "string",
              "x-go-name": "Content"
            },
            "created_at": {
              "type": "string",
              "format": "date-time",
              "x-go-name": "CreatedAt"
            },
            "has_children": {
              "type": "boolean",
              "x-go-name": "HasChild"
            },
            "id": {
              "type": "integer",
              "format": "int64",
              "x-go-name": "ID"
            },
            "like_count": {
              "type": "integer",
              "format": "int64",
              "x-go-name": "LikeCount"
            },
            "parent_id": {
              "type": "integer",
              "format": "int64",
              "x-go-name": "ParentID"
            },
            "post_id": {
              "type": "integer",
              "format": "int64",
              "x-go-name": "PostID"
            },
            "user": {
              "type": "string",
              "x-go-name": "User"
            }
          }
        }
      },
      "x-go-package": "gitlab.com/rockship/backend/zeniius-backend/api"
    },
    "CompanyAlbumPayload": {
      "type": "object",
      "properties": {
        "add_files": {
          "type": "array",
          "items": {
            "type": "integer",
            "format": "int64"
          },
          "x-go-name": "AddFiles"
        },
        "remove_files": {
          "type": "array",
          "items": {
            "type": "integer",
            "format": "int64"
          },
          "x-go-name": "RemoveFiles"
        }
      },
      "x-go-package": "gitlab.com/rockship/backend/zeniius-backend/api"
    },
    "CompanyBusinessCreatePayload": {
      "type": "object",
      "properties": {
        "content": {
          "type": "string",
          "x-go-name": "Description"
        },
        "id": {
          "type": "integer",
          "format": "int64",
          "x-go-name": "ID"
        }
      },
      "x-go-package": "gitlab.com/rockship/backend/zeniius-backend/api"
    },
    "CompanyBusinessPayload": {
      "type": "object",
      "properties": {
        "business": {
          "type": "integer",
          "format": "int64",
          "x-go-name": "Business"
        },
        "description": {
          "type": "string",
          "x-go-name": "Description"
        }
      },
      "x-go-package": "gitlab.com/rockship/backend/zeniius-backend/api"
    },
    "CompanyCertificatePayload": {
      "type": "object",
      "properties": {
        "file": {
          "type": "integer",
          "format": "int64",
          "x-go-name": "File"
        }
      },
      "x-go-package": "gitlab.com/rockship/backend/zeniius-backend/api"
    },
    "CompanyPayload": {
      "type": "object",
      "properties": {
        "address": {
          "type": "string",
          "x-go-name": "Address"
        },
        "business": {
          "type": "array",
          "items": {
            "$ref": "#/definitions/CompanyBusinessCreatePayload"
          },
          "x-go-name": "Business"
        },
        "contact": {
          "type": "string",
          "x-go-name": "Contact"
        },
        "description": {
          "type": "string",
          "x-go-name": "Description"
        },
        "email": {
          "type": "string",
          "x-go-name": "Email"
        },
        "facebook_link": {
          "type": "string",
          "x-go-name": "Facebook"
        },
        "name": {
          "type": "string",
          "x-go-name": "Name"
        },
        "phone": {
          "type": "string",
          "x-go-name": "Phone"
        },
        "role": {
          "type": "string",
          "x-go-name": "Role"
        },
        "website": {
          "type": "string",
          "x-go-name": "Website"
        }
      },
      "x-go-package": "gitlab.com/rockship/backend/zeniius-backend/api"
    },
    "FileResponse": {
      "description": "File",
      "type": "object",
      "properties": {
        "created_at": {
          "type": "string",
          "format": "date-time",
          "x-go-name": "CreatedAt"
        },
        "extension": {
          "type": "string",
          "x-go-name": "Extension"
        },
        "filename": {
          "type": "string",
          "x-go-name": "Filename"
        },
        "fullPath": {
          "type": "string",
          "x-go-name": "FullPath"
        },
        "height": {
          "type": "integer",
          "format": "int64",
          "x-go-name": "Height"
        },
        "id": {
          "type": "integer",
          "format": "int64",
          "x-go-name": "ID"
        },
        "mime_type": {
          "type": "string",
          "x-go-name": "MimeType"
        },
        "size": {
          "type": "integer",
          "format": "int64",
          "x-go-name": "Size"
        },
        "thumbnail": {
          "type": "string",
          "x-go-name": "Thumbnail"
        },
        "type": {
          "type": "string",
          "x-go-name": "Type"
        },
        "width": {
          "type": "integer",
          "format": "int64",
          "x-go-name": "Width"
        }
      },
      "x-go-package": "gitlab.com/rockship/backend/zeniius-backend/api"
    },
    "GroupResponse": {
      "description": "Group",
      "type": "object",
      "properties": {
        "avatar": {
          "type": "string",
          "x-go-name": "Avatar"
        },
        "description": {
          "type": "string",
          "x-go-name": "Description"
        },
        "id": {
          "type": "string",
          "x-go-name": "ID"
        },
        "name": {
          "type": "string",
          "x-go-name": "Name"
        }
      },
      "x-go-package": "gitlab.com/rockship/backend/zeniius-backend/api"
    },
    "LoginFirebase": {
      "type": "object",
      "required": [
        "firebase_token"
      ],
      "properties": {
        "firebase_token": {
          "type": "string",
          "x-go-name": "Token"
        },
        "platform": {
          "description": "android | ios",
          "type": "string",
          "x-go-name": "Platform"
        }
      },
      "x-go-package": "gitlab.com/rockship/backend/zeniius-backend/api"
    },
    "PostCost": {
      "type": "object",
      "properties": {
        "cost_from": {
          "type": "number",
          "format": "double",
          "x-go-name": "CostFrom"
        },
        "cost_to": {
          "type": "number",
          "format": "double",
          "x-go-name": "CostTo"
        },
        "description": {
          "type": "string",
          "x-go-name": "Description"
        },
        "is_estimate": {
          "type": "boolean",
          "x-go-name": "IsEstimate"
        },
        "type": {
          "type": "string",
          "enum": [
            "free",
            "negotiation",
            "range"
          ],
          "x-go-name": "Type"
        }
      },
      "x-go-package": "gitlab.com/rockship/backend/zeniius-backend/api"
    },
    "PostPayload": {
      "type": "object",
      "required": [
        "title",
        "type",
        "description"
      ],
      "properties": {
        "business": {
          "type": "array",
          "items": {
            "type": "integer",
            "format": "int64"
          },
          "x-go-name": "Business"
        },
        "cost": {
          "$ref": "#/definitions/PostCost"
        },
        "demand_type": {
          "type": "string",
          "enum": [
            "demands",
            "ability"
          ],
          "x-go-name": "DemandType"
        },
        "description": {
          "type": "string",
          "x-go-name": "Description"
        },
        "enable_register": {
          "type": "boolean",
          "x-go-name": "EnableRegister"
        },
        "end_time": {
          "type": "string",
          "format": "date-time",
          "x-go-name": "EndTime"
        },
        "files": {
          "type": "array",
          "items": {
            "type": "integer",
            "format": "int64"
          },
          "x-go-name": "Files"
        },
        "location": {
          "type": "string",
          "x-go-name": "Location"
        },
        "location_lat": {
          "type": "number",
          "format": "double",
          "x-go-name": "LocationLat"
        },
        "location_long": {
          "type": "number",
          "format": "double",
          "x-go-name": "LocationLong"
        },
        "privacy": {
          "$ref": "#/definitions/PostPrivacy"
        },
        "start_time": {
          "type": "string",
          "format": "date-time",
          "x-go-name": "StartTime"
        },
        "title": {
          "type": "string",
          "x-go-name": "Title"
        },
        "type": {
          "type": "string",
          "enum": [
            "opportunity",
            "discussion",
            "event"
          ],
          "x-go-name": "Type"
        }
      },
      "x-go-package": "gitlab.com/rockship/backend/zeniius-backend/api"
    },
    "PostPrivacy": {
      "type": "object",
      "properties": {
        "is_public": {
          "type": "boolean",
          "x-go-name": "IsPublic"
        },
        "share_group": {
          "type": "array",
          "items": {
            "type": "string"
          },
          "x-go-name": "ShareGroup"
        }
      },
      "x-go-package": "gitlab.com/rockship/backend/zeniius-backend/dataType"
    },
    "PostShare": {
      "type": "object",
      "properties": {
        "share_group": {
          "type": "array",
          "items": {
            "type": "string"
          },
          "x-go-name": "ShareGroup"
        }
      },
      "x-go-package": "gitlab.com/rockship/backend/zeniius-backend/dataType"
    },
    "PostUpdatePayload": {
      "type": "object",
      "required": [
        "title",
        "type",
        "description"
      ],
      "properties": {
        "business": {
          "type": "array",
          "items": {
            "type": "integer",
            "format": "int64"
          },
          "x-go-name": "Business"
        },
        "cost": {
          "$ref": "#/definitions/PostCost"
        },
        "demand_type": {
          "type": "string",
          "enum": [
            "demands",
            "ability"
          ],
          "x-go-name": "DemandType"
        },
        "description": {
          "type": "string",
          "x-go-name": "Description"
        },
        "enable_register": {
          "type": "boolean",
          "x-go-name": "EnableRegister"
        },
        "end_time": {
          "type": "string",
          "format": "date-time",
          "x-go-name": "EndTime"
        },
        "files": {
          "type": "array",
          "items": {
            "type": "integer",
            "format": "int64"
          },
          "x-go-name": "Files"
        },
        "location": {
          "type": "string",
          "x-go-name": "Location"
        },
        "location_lat": {
          "type": "number",
          "format": "double",
          "x-go-name": "LocationLat"
        },
        "location_long": {
          "type": "number",
          "format": "double",
          "x-go-name": "LocationLong"
        },
        "privacy": {
          "$ref": "#/definitions/PostPrivacy"
        },
        "start_time": {
          "type": "string",
          "format": "date-time",
          "x-go-name": "StartTime"
        },
        "status": {
          "type": "string",
          "x-go-name": "Status"
        },
        "title": {
          "type": "string",
          "x-go-name": "Title"
        },
        "type": {
          "type": "string",
          "enum": [
            "opportunity",
            "discussion",
            "event"
          ],
          "x-go-name": "Type"
        }
      },
      "x-go-package": "gitlab.com/rockship/backend/zeniius-backend/api"
    },
    "ReportPostPayload": {
      "type": "object",
      "properties": {
        "message": {
          "type": "string",
          "x-go-name": "Message"
        }
      },
      "x-go-package": "gitlab.com/rockship/backend/zeniius-backend/api"
    },
    "TranslateParam": {
      "type": "object",
      "properties": {
        "locale": {
          "type": "string",
          "x-go-name": "Locale"
        },
        "object_id": {
          "type": "integer",
          "format": "int64",
          "x-go-name": "ObjectID"
        },
        "object_type": {
          "type": "string",
          "x-go-name": "ObjectType"
        }
      },
      "x-go-package": "gitlab.com/rockship/backend/zeniius-backend/api"
    },
    "UpdateCommentPayload": {
      "type": "object",
      "required": [
        "content"
      ],
      "properties": {
        "content": {
          "description": "Comment content",
          "type": "string",
          "x-go-name": "Content"
        },
        "file_id": {
          "description": "Attachment id",
          "type": "integer",
          "format": "int64",
          "x-go-name": "File"
        }
      },
      "x-go-package": "gitlab.com/rockship/backend/zeniius-backend/api"
    },
    "UpdateCompanyPayload": {
      "type": "object",
      "properties": {
        "address": {
          "type": "string",
          "x-go-name": "Address"
        },
        "album": {
          "type": "array",
          "items": {
            "type": "integer",
            "format": "int64"
          },
          "x-go-name": "Album"
        },
        "business": {
          "type": "array",
          "items": {
            "$ref": "#/definitions/CompanyBusinessCreatePayload"
          },
          "x-go-name": "Business"
        },
        "contact": {
          "type": "string",
          "x-go-name": "Contact"
        },
        "description": {
          "type": "string",
          "x-go-name": "Description"
        },
        "email": {
          "type": "string",
          "x-go-name": "Email"
        },
        "facebook_link": {
          "type": "string",
          "x-go-name": "Facebook"
        },
        "logo": {
          "type": "integer",
          "format": "int64",
          "x-go-name": "Logo"
        },
        "name": {
          "type": "string",
          "x-go-name": "Name"
        },
        "name_card_back": {
          "type": "integer",
          "format": "int64",
          "x-go-name": "NameCardBack"
        },
        "name_card_front": {
          "type": "integer",
          "format": "int64",
          "x-go-name": "NameCardFront"
        },
        "phone": {
          "type": "string",
          "x-go-name": "Phone"
        },
        "role": {
          "type": "string",
          "x-go-name": "Role"
        },
        "website": {
          "type": "string",
          "x-go-name": "Website"
        }
      },
      "x-go-package": "gitlab.com/rockship/backend/zeniius-backend/api"
    },
    "UpdateUserContactPayload": {
      "type": "object",
      "title": "UpdateUserContactPayload ..",
      "properties": {
        "email": {
          "type": "string",
          "x-go-name": "Email"
        },
        "facebook_link": {
          "type": "string",
          "x-go-name": "Facebook"
        },
        "phone_number": {
          "type": "string",
          "x-go-name": "Phone"
        }
      },
      "x-go-package": "gitlab.com/rockship/backend/zeniius-backend/api"
    },
    "UpdateUserImage": {
      "type": "object",
      "title": "UpdateUserImage ..",
      "properties": {
        "file": {
          "description": "File ID\nrequire: true",
          "type": "integer",
          "format": "int64",
          "x-go-name": "File"
        }
      },
      "x-go-package": "gitlab.com/rockship/backend/zeniius-backend/api"
    },
    "UpdateUserPersonalPayload": {
      "type": "object",
      "title": "UpdateUserPersonalPayload ..",
      "properties": {
        "birthday": {
          "type": "string",
          "format": "date-time",
          "x-go-name": "Birthday"
        },
        "description": {
          "type": "string",
          "x-go-name": "Description"
        },
        "fullname": {
          "type": "string",
          "x-go-name": "Fullname"
        }
      },
      "x-go-package": "gitlab.com/rockship/backend/zeniius-backend/api"
    },
    "UploadFile": {
      "type": "object",
      "required": [
        "filename",
        "content_type",
        "type"
      ],
      "properties": {
        "content_type": {
          "type": "string",
          "x-go-name": "ContentType"
        },
        "filename": {
          "type": "string",
          "x-go-name": "Filename"
        },
        "height": {
          "type": "integer",
          "format": "int64",
          "x-go-name": "Height"
        },
        "thumbnail": {
          "description": "file thumbnail",
          "type": "string",
          "x-go-name": "Thumbnail"
        },
        "type": {
          "description": "file type: image | video | user_avatar | user_cover | company_logo | company_namecard | company_other | chat_file",
          "type": "string",
          "enum": [
            "image",
            " video",
            " user_avatar",
            " user_cover",
            " company_logo",
            " company_namecard",
            " company_other",
            " chat_file"
          ],
          "x-go-name": "Type"
        },
        "width": {
          "type": "integer",
          "format": "int64",
          "x-go-name": "Width"
        }
      },
      "x-go-package": "gitlab.com/rockship/backend/zeniius-backend/api"
    },
    "User": {
      "type": "object",
      "properties": {
        "avatar": {
          "type": "string",
          "x-go-name": "Avatar"
        },
        "cover": {
          "type": "string",
          "x-go-name": "Cover"
        },
        "email": {
          "type": "string",
          "x-go-name": "Email"
        },
        "first_name": {
          "type": "string",
          "x-go-name": "FirstName"
        },
        "id": {
          "type": "integer",
          "format": "int64",
          "x-go-name": "Users"
        },
        "last_name": {
          "type": "string",
          "x-go-name": "LastName"
        }
      },
      "x-go-package": "gitlab.com/rockship/backend/zeniius-backend/api"
    },
    "UserBusinessPayload": {
      "type": "object",
      "properties": {
        "business_ids": {
          "type": "array",
          "items": {
            "type": "integer",
            "format": "int64"
          },
          "x-go-name": "Business"
        }
      },
      "x-go-package": "gitlab.com/rockship/backend/zeniius-backend/api"
    },
    "UserExtend": {
      "type": "object",
      "properties": {
        "avatar": {
          "type": "string",
          "x-go-name": "Avatar"
        },
        "cover": {
          "type": "string",
          "x-go-name": "Cover"
        },
        "email": {
          "type": "string",
          "x-go-name": "Email"
        },
        "first_name": {
          "type": "string",
          "x-go-name": "FirstName"
        },
        "id": {
          "type": "integer",
          "format": "int64",
          "x-go-name": "Users"
        },
        "is_follow": {
          "type": "boolean",
          "x-go-name": "IsFollow"
        },
        "is_friend": {
          "type": "boolean",
          "x-go-name": "IsFriend"
        },
        "is_sent_request": {
          "type": "boolean",
          "x-go-name": "IsSentRequest"
        },
        "last_name": {
          "type": "string",
          "x-go-name": "LastName"
        }
      },
      "x-go-package": "gitlab.com/rockship/backend/zeniius-backend/api"
    },
    "UserVerifyPayload": {
      "type": "object",
      "properties": {
        "complete_info": {
          "type": "boolean",
          "x-go-name": "CompleteInfo"
        },
        "verified": {
          "type": "boolean",
          "x-go-name": "Verified"
        }
      },
      "x-go-package": "gitlab.com/rockship/backend/zeniius-backend/api"
    }
  },
  "responses": {
    "AccessToken": {
      "description": "Access token",
      "schema": {
        "type": "object",
        "properties": {
          "access_token": {
            "type": "string",
            "x-go-name": "Token"
          },
          "created_at": {
            "type": "string",
            "format": "date-time",
            "x-go-name": "CreatedAt"
          },
          "device_info": {
            "type": "string",
            "x-go-name": "DeviceInfo"
          },
          "expired_at": {
            "type": "string",
            "format": "date-time",
            "x-go-name": "ExpiredAt"
          },
          "expired_in": {
            "type": "integer",
            "format": "int32",
            "x-go-name": "ExpiredIn"
          },
          "ip_address": {
            "type": "string",
            "x-go-name": "IPAddress"
          },
          "platform": {
            "type": "string",
            "x-go-name": "Platform"
          },
          "user": {
            "type": "string",
            "x-go-name": "User"
          }
        }
      }
    },
    "Business": {
      "description": "Business",
      "headers": {
        "created_at": {
          "type": "string",
          "format": "date-time"
        },
        "description": {
          "type": "string"
        },
        "id": {
          "type": "integer",
          "format": "int64"
        },
        "title": {
          "type": "string"
        }
      }
    },
    "Comment": {
      "description": "Comment",
      "schema": {
        "type": "object",
        "properties": {
          "attachment": {
            "type": "array",
            "items": {
              "type": "string"
            },
            "x-go-name": "Attachment"
          },
          "children_comment": {
            "type": "array",
            "items": {
              "type": "string"
            },
            "x-go-name": "ChildrenComments"
          },
          "children_comment_count": {
            "type": "integer",
            "format": "int64",
            "x-go-name": "ChildrenCommentsCount"
          },
          "content": {
            "type": "string",
            "x-go-name": "Content"
          },
          "created_at": {
            "type": "string",
            "format": "date-time",
            "x-go-name": "CreatedAt"
          },
          "has_children": {
            "type": "boolean",
            "x-go-name": "HasChild"
          },
          "id": {
            "type": "integer",
            "format": "int64",
            "x-go-name": "ID"
          },
          "like_count": {
            "type": "integer",
            "format": "int64",
            "x-go-name": "LikeCount"
          },
          "parent_id": {
            "type": "integer",
            "format": "int64",
            "x-go-name": "ParentID"
          },
          "post_id": {
            "type": "integer",
            "format": "int64",
            "x-go-name": "PostID"
          },
          "user": {
            "type": "string",
            "x-go-name": "User"
          }
        }
      }
    },
    "CompanyBusiness": {
      "description": "Company Business",
      "schema": {
        "type": "object"
      },
      "headers": {
        "business": {},
        "company_id": {
          "type": "integer",
          "format": "int64"
        },
        "description": {
          "type": "string"
        },
        "id": {
          "type": "integer",
          "format": "int64"
        }
      }
    },
    "CompanyStub": {
      "description": "Company Stub Profile",
      "headers": {
        "id": {
          "type": "integer",
          "format": "int64"
        },
        "name": {
          "type": "string"
        }
      }
    },
    "Default": {
      "description": "Default Response",
      "schema": {
        "type": "object",
        "properties": {
          "message": {
            "type": "string",
            "x-go-name": "Message"
          }
        }
      }
    },
    "File": {
      "description": "File",
      "headers": {
        "created_at": {
          "type": "string",
          "format": "date-time"
        },
        "extension": {
          "type": "string"
        },
        "filename": {
          "type": "string"
        },
        "fullPath": {
          "type": "string"
        },
        "height": {
          "type": "integer",
          "format": "int64"
        },
        "id": {
          "type": "integer",
          "format": "int64"
        },
        "mime_type": {
          "type": "string"
        },
        "size": {
          "type": "integer",
          "format": "int64"
        },
        "thumbnail": {
          "type": "string"
        },
        "type": {
          "type": "string"
        },
        "width": {
          "type": "integer",
          "format": "int64"
        }
      }
    },
    "GenericError": {
      "description": "Common Error",
      "schema": {
        "type": "object",
        "properties": {
          "error": {
            "type": "string",
            "x-go-name": "Error"
          }
        }
      }
    },
    "Group": {
      "description": "Group",
      "headers": {
        "avatar": {
          "type": "string"
        },
        "description": {
          "type": "string"
        },
        "id": {
          "type": "string"
        },
        "name": {
          "type": "string"
        }
      }
    },
    "PingResponse": {
      "description": "PingResponse ..",
      "schema": {
        "type": "object",
        "properties": {
          "sucess": {
            "description": "Ping | Pong",
            "type": "boolean",
            "x-go-name": "Success"
          }
        }
      }
    },
    "Post": {
      "description": "Post",
      "schema": {
        "type": "object",
        "properties": {
          "business": {
            "type": "array",
            "items": {
              "$ref": "#/definitions/BusinessResponse"
            },
            "x-go-name": "Business"
          },
          "comment": {
            "$ref": "#/definitions/CommentResponse"
          },
          "comment_count": {
            "type": "integer",
            "format": "int64",
            "x-go-name": "CommentCount"
          },
          "created_at": {
            "type": "string",
            "format": "date-time",
            "x-go-name": "CreatedAt"
          },
          "demand_type": {
            "type": "string",
            "x-go-name": "DemandType"
          },
          "description": {
            "type": "string",
            "x-go-name": "Description"
          },
          "description_en": {
            "type": "string",
            "x-go-name": "DescriptionEng"
          },
          "end_time": {
            "type": "string",
            "format": "date-time",
            "x-go-name": "EndTime"
          },
          "fields": {
            "type": "string",
            "x-go-name": "Fields"
          },
          "files": {
            "type": "array",
            "items": {
              "$ref": "#/definitions/FileResponse"
            },
            "x-go-name": "Files"
          },
          "group": {
            "type": "array",
            "items": {
              "$ref": "#/definitions/GroupResponse"
            },
            "x-go-name": "Group"
          },
          "id": {
            "type": "integer",
            "format": "int64",
            "x-go-name": "ID"
          },
          "is_public": {
            "type": "boolean",
            "x-go-name": "IsPublic"
          },
          "like_count": {
            "type": "integer",
            "format": "int64",
            "x-go-name": "LikeCount"
          },
          "liked": {
            "type": "boolean",
            "x-go-name": "Liked"
          },
          "location": {
            "type": "string",
            "x-go-name": "Location"
          },
          "location_lat": {
            "type": "number",
            "format": "double",
            "x-go-name": "Lat"
          },
          "location_long": {
            "type": "number",
            "format": "double",
            "x-go-name": "Long"
          },
          "register_count": {
            "type": "integer",
            "format": "int64",
            "x-go-name": "RegisterCount"
          },
          "registered": {
            "type": "boolean",
            "x-go-name": "Registered"
          },
          "share_count": {
            "type": "integer",
            "format": "int64",
            "x-go-name": "ShareCount"
          },
          "start_time": {
            "type": "string",
            "format": "date-time",
            "x-go-name": "StartTime"
          },
          "status": {
            "type": "string",
            "x-go-name": "Status"
          },
          "title": {
            "type": "string",
            "x-go-name": "Title"
          },
          "title_en": {
            "type": "string",
            "x-go-name": "TitleEng"
          },
          "type": {
            "type": "string",
            "x-go-name": "Type"
          },
          "user": {
            "type": "string",
            "x-go-name": "User"
          },
          "view_count": {
            "type": "integer",
            "format": "int64",
            "x-go-name": "ViewCount"
          }
        }
      }
    },
    "SharePost": {
      "description": "Share Post",
      "headers": {
        "error_groups": {
          "type": "array",
          "items": {
            "type": "string"
          }
        },
        "success_groups": {
          "type": "array",
          "items": {
            "type": "string"
          }
        }
      }
    },
    "SignedUrl": {
      "description": "SignedUrl",
      "headers": {
        "content_type": {
          "type": "string"
        },
        "download_url": {
          "type": "string"
        },
        "file_id": {
          "type": "integer",
          "format": "int64"
        },
        "filename": {
          "type": "string"
        },
        "thumbnail_upload_url": {
          "type": "string"
        },
        "upload_url": {
          "type": "string"
        }
      }
    },
    "SimpleResponse": {
      "description": "SimpleResponse This will return status of your request.",
      "headers": {
        "message": {
          "type": "string",
          "description": "Message of error"
        },
        "success": {
          "type": "boolean",
          "description": "Status of request"
        }
      }
    },
    "User": {
      "description": "UserResponse object of a user",
      "schema": {
        "$ref": "#/definitions/User"
      }
    },
    "UserExtend": {
      "description": "UserExtendResponse object of a user extend",
      "schema": {
        "$ref": "#/definitions/UserExtend"
      }
    },
    "UserList": {
      "description": "UserListResponse list of object of a user",
      "schema": {
        "type": "array",
        "items": {
          "$ref": "#/definitions/User"
        }
      }
    }
  },
  "securityDefinitions": {
    "api_key": {
      "type": "apiKey",
      "name": "Authorization",
      "in": "header"
    },
    "locale": {
      "type": "apiKey",
      "name": "Accept-Language",
      "in": "header"
    }
  },
  "security": [
    {
      "api_key": []
    },
    {
      "locale": []
    }
  ]
}
